ေ၀ျဖိဳး :
ငါသိျပီ ဒါဆုိငါ ျပႆနာကေန ေဘးဖယ္ေနမွပဲ!

ဆုျမတ္:
အဲလိုလုပ္ရင္ေကာင္းတာေပါ့!

ဆရာသန္႔ဇင္:
ေတာ္ေသးတာေပါ့ ေက်ာင္းကေန စည္းကမ္းေဖာက္တဲ့လူမ်ိဳး မပ်ိဳးေထာင္ခဲ့လို႔!

ဆရာသန္႔ဇင္၊ ေ၀ျဖိဳး၊ ဆုျမတ္:
ဟားဟား

ဆုျမတ္:
ဆရာသန္႔ဇင္နဲ႔ျပန္ေတြ႕ရတာ တကယ္၀မ္းသာပါတယ္

ေ၀ျဖိဳး:
ဆရာနဲ႕ျပန္ေတြ႕ရတာ တကယ္ကိုကံေကာင္းပါတယ္။

ဆရာသန္႔ဇင္:
မင္းတို႔အသက္ေတြၾကီးလာတာကုိျမင္ရတာလည္း၀မ္းသာတယ္။ ျပီးေတာ့ စကားေျပာရတာ တကယ္ကို စိတ္၀င္စားဖို႔ေကာင္းတယ္!

ဆုျမတ္:
ဒါေတာ့ အမွန္ပဲဆရာ

ဆရာသန္႔ဇင္:
မင္းတို႔ လက္ဖက္ရည္လိုက္ေသာက္ဖို႔အခ်ိန္ရၾကလား။ ငါအိမ္ကိုသြားရေအာင္ေလ။ အိမ္မွာ မင္းတို႔နဲ႕မိတ္ဆက္ေပးခ်င္တဲ့လူရွိတယ္။

ဆုျမတ္:
လိုက္မွာေပါ့!

ေ၀ျဖိဳး:
ေကာင္းသားပဲ ဆရာရဲ႕.

ဆရာသန္႔ဇင္:
အိမ္ကိုသြားရေအာင္။ ဒီကေနသိပ္မေ၀းဘူး။ လမ္းေလွ်ာက္သြားလို႔ရတယ္။

ဆုျမတ္:
မီးနီကိုမျဖတ္မိေအာင္ သတိထားသြားရမယ္။!

ဆုျမတ္၊ ေ၀ျဖိဳး၊ ဆရာသန္႔ဇင္:
ဟားဟား.
