ဆုျမတ္:
ေက်ာင္းမွခ်မွတ္တဲ့စည္းကမ္းေတြက ေက်ာင္းသားေတြ၊ဆရာေတြနဲ႔  ေက်ာင္းနဲ႔ပတ္သတ္တဲ့လူေတြပဲလိုက္နာရတာေလ။ ေက်ာင္းျပင္ပကလူေတြဆိုလိုက္နာစရာမလိုအပ္ဘူးေလ။

ေ၀ျဖိဳး:
ဟုတ္လို႔လား။...?

ဆရာသန္႔ဇင္:
ေ၀ျဖိဳး မင္းနားရႈပ္သြားျပီထင္တယ္။?

ေ၀ျဖိဳး:
ဟုတ္မယ္?

ဆရာသန္႔ဇင္:
စဥ္းစားၾကည့္ ခုဆိုငါက ေက်ာင္းမွာ ေက်ာင္းအုပ္ေနာ္။ စာသင္ခန္းေတြမွာ မုန္႔မစားရဘူးဆိုဘူး စည္းကမ္းသတ္မွတ္ထားတယ္။ ေက်ာင္းသားေတြအားလံုးကိုလည္း ဒါကိုလိုက္နာေစခ်င္တယ္။

ေ၀ျဖိဳး:
ေကာင္းသားပဲ ဆရာ

ဆရာသန္႔ဇင္:
ဒါေပမယ့္ ဒီစည္းမ်ဥ္းက သူတို႔အိမ္မွာ ညစာမစားခိုင္းတာ စကားေတြေျပာမခိုင္းတာ လို႔ သတ္မွတ္ေပးသလား။

ေ၀ျဖိဳး:
မသတ္မွတ္ထားပါဘူး!

ဆရာသန္႔ဇင္:
ဟုတ္တယ္။ ေက်ာင္းသားေတြက ငယ္ရြယ္တဲ့အတြက္ ငယ္ရြယ္သူေတြလုပ္တဲ့အတုိင္းလုပ္မွာပဲ ဗိုက္ဆာရင္ စားမယ္ နားေထာင္သင့္မယ္ထင္ရင္ နားေထာင္ၾကမွာပဲ

ေ၀ျဖိဳး:
ကၽြန္ေတာ့္လိုပဲ...

ဆုျမတ္:
နင္အေမကေကာ နင္နဲ႔အရမ္းတူတယ္ေျပာမွာပဲ!
