ေ၀ျဖိဳး:
အာဏာကိုလြဲမွားအသံုးျပဳတယ္ဆိုတာဘယ္လိုမ်ိဳးလဲ?

အသံေနာက္ခံ:
အာဏာဆိုတာ တစ္စံုတစ္ေယာက္ကလိုခ်င္တာရေအာင္လုပ္ႏိုင္တဲ့အရာပါ။ လိုခ်င္တာရဖို႔ အာဏာကို လြဲမွားအသံုးခ်ရင္ ဥပမာ- ႏိုင္ငံရဲ႕ဥပေဒေတြကိုမလိုက္နာတာမ်ိဳးေပါ့။ ဒါဆိုအာဏာကိုလြဲမွားအသံုးျပဳတာပဲ။ ျပီေတာ့ အာဏာမရွိတဲ့လူေတြကို သူတို႔အတြက္မေကာင္းတာေတြကို လုပ္ခိုင္းတာမ်ိဳးေပါ့။

ဆရာသန္႔ဇင္နဲ႕ဆုျမတ္ေျပာသလိုမ်ိဳးဆိုရင္ အာဏာကိုလြဲမ်ားအသံုးျပဳတဲ့ေနရာေတြအမ်ာၾကီးရွိတယ္။ လူတန္းစားခြဲျခားမႈႏွင့္ လာဘ္စားမႈဆိုရင္ ႏိုင္ငံဖြံျဖိဳးေရးမွာ ေတာ္ေတာ္ကို အဟန္႔အတားျဖစ္ေစတယ္။

လူတန္းစားခြဲျခားမႈဆိုတာ တစ္ဦးျခင္း(သို႔)အဖြဲ႔လိုက္ကို အျခားသူေတြလို အခြင့္အေရးတူမေပးတာမ်ိဳးကိုေျပာတာပါ။ ဥပမာ ဆံုးျဖတ္မႈခ်မွတ္ရာေတြမွာေပါ့။

လူတန္းစားခြဲျခားရာမွ သတ္မွတ္ထားတဲ့ စည္းကမ္းခ်က္ေတြရဲ႕ သက္ေရာက္မႈ(သို႔) ဖိအားေပးခံရမႈေတြေၾကာင့္ျဖစ္ႏိုင္ပါတယ္။ ႏိုင္ငံတကာ လူတန္းစားခြဲျခားမႈဆိုရင္ အမ်ိဳးသမီးေတြ မဲေပးခြင့္မရွိတာမ်ိဳၚေပါ့။ လူတိုင္းမွာလည္း စစ္ဖက္ကျဖစ္ေပမယ့္ မဲေပးပိုင္ခြင့္ရွိျပီး အမ်ိဳးသားမဟုတ္ပဲ အမ်ိဳးသမီးျဖစ္ေနတာေၾကာင့္မဲေပးခြင့္မရွိဘူးဆိုရင္ လူတန္းစားခြဲျခားမႈျဖစ္သည္။ သို ့ေသာ္လည္း အမ်ားစု အေနျဖင့္ အမ်ိဳးသား မ်ားႏွင့္ အမ်ိဳးသမီး အနည္းစု ခန္ ့သာ စစ္ဖက္တြင္ ပါဝင္ႏိုင္ျခင္းသည္ ရည္ရြယ္ထားေသာ ခြဲျခားျခင္း တစ္ခုလည္း ျဖစ္သည္။ ျဖစ္စဥ္ ႏွစ္ခုစလံုးတြင္ အမ်ိဳးသမီးမ်ားသည္ ခြဲျခားျခင္းကို ဆန္ ့က်င္ၾကသည္ ။ သို ့ေသာ္လည္း တျခားနည္းလမ္းႏွင့္ ျဖစ္သည္။ ျမန္မာႏိုင္ငံတြင္ ထိုဥပမာမ်ားသည္ တကယ္ဥပေဒ မဟုတ္ပါ။ 


လိင္၊ လူမ်ိဳး၊ ဘာသာေရး၊ အသက္၊ မသန္စြမ္းမႈ ႏွင့္အျခားေသာအရာမ်ားေၾကာင့္လည္း လူတန္းစားခြဲျခားမႈကိုျဖစ္ေစပါတယ္။

လာဘ္စားမႈဆိုသည္မွာ အာဏာကို ကိုယ္ပိုင္အက်ိဳးရရွိေအာင္ အသံုးခ်ျခင္းကိုဆိုလိုပါတယ္။ စီးပြားေရးေတြလုပ္တာ အခြန္ေကာက္တာေတြကေတာ့ လာဘ္စားမႈမဟုတ္ပါဘူး။ ကိုယ္က်ိဳးအတြက္မဟုတ္ဘဲအမ်ားအက်ိဳးအတြက္ျဖစ္ေသာေၾကာင့္ျဖစ္သည္။ ဥပေဒမ်ားကိုခ်ိဳးေဖာက္ျပီး အက်ိဳးစီးပြားရွာမွသာ လာဘ္စားမႈျဖစ္ေစပါသည္။

ဥပမာ အစိုးရကို ေပးအပ္ရမည့္ အခြန္ေငြမ်ားကို မေပးဘဲ မိမိအတြက္ယူထားျခင္းမ်ိဳးျဖစ္သည္။

ေမာ္ေတာ္ပီကယ္မ်ားမွလည္း စည္းကမ္းမလိုက္နာေသာယာဥ္ေမာင္းမ်ားကိုအေရးမယူပဲ လာဘ္စားျခင္းမ်ိဳးျဖစ္သည္။
