
ေဝျဖိဳး ။  ။ ငါလည္း ငါ့ပတ္ဝန္းက်င္ ဘယ္လိုတိုးတက္ေအာင္ လုပ္ရမလဲ သိခ်င္ပါတယ္။

ဆုျမတ္။   ။ ဒါဆို ေသြးလွဴတဲ့ အဖြဲ ့ကိုေကာ.... သြားပူးေပါင္း ၾကည့္ပါလား။

ေဝျဖိဳး။  ။ တကယ္တမ္းေတာ့.. ငါသူတို ့အေၾကာင္းလည္း ေသခ်ာမသိဘူးဟ။

ဆုျမတ္။  ။ ဒါေပမဲ့ နင္ သူတို ့ဘာလုပ္တယ္ ဆိုတာကိုစိတ္ဝင္စားတယ္ မဟုတ္လား ?

ေဝျဖိဳး။  ။ ထင္ရတာပဲ ။

ဆုျမတ္။  ။ ေနာက္ျပီး နင္သူတို ့ကို ဆက္သြယ္သင့္တယ္။ တကယ္တမ္း တက္ၾကြႏိုင္ငံသား 
ဆိုတာ နင္ စိတ္ဆႏၵရွိတဲ့ ဟာ တစ္ခုခုကို လုပ္ကိုင္ျခင္းပဲေလ။ နင့္အတြက္ ဘာေတြက အေရးၾကီးတယ္။ ကိုယ့္ပတ္ဝန္းက်င္ကို ဘယ္လိုေျပာင္းလဲ ေအာင္ လုပ္ခ်င္တယ္ ဆိုတာ..ကိုယ္ပဲ  သိမွာေလ။ 

