
ေဝျဖိဳး ။ ။ ဒါေၾကာင့္ နင္က အဖြဲ ့အစည္းမွာ လုပ္တာေပါ့။

ဆုျမတ္။   ။ ဟုတ္တယ္။

ေဝျဖိဳး။  ။ ဒါေပမဲ့ နင္ဘယ္လိုလုပ္မွာလဲ ? ငါေျပာခ်င္တာက ျမန္မာႏိုင္ငံကို ဘယ္လိုအေျပာင္းအလဲေတြ လုပ္မွာလဲ ? နင္တစ္ေယာက္ထဲနဲ ့ေလ..

ဆုျမတ္။  ။ မွန္ပါတယ္။ ဒါေပမဲ့ တက္ၾကြႏိ္ုင္ငံသားဆိုတာ ငါတို ့ႏိုင္ငံအတြက္ အေရးၾကီးတယ္ ဆိုတယ္လို ့ အဲ့ဒါေၾကာင့္ ေျပာတာေပါ့။

ေဝျဖိဳး ။   ။ နင္ကလည္း အဲ့ဒီလို ထူးထူးဆန္းဆန္း စကားလံုး ေတြကို ထပ္သံုးျပန္ျပီ။
ဆုျမတ္။   ။ ဟားဟား.. ေဆာရီးပါ ။ ငါ ဆိုလိုတဲ့အဓိပၸါယ္ ျမန္မာႏို္င္ငံၾကီး တိုးတက္ဖို ့အတြက္ လူေတြ ေတာ္ေတာ္မ်ားမ်ား အလုပ္ေတြ အတူတကြ လုပ္ၾကဖို ့လိုတယ္လို ့ပါ။ ငါတို ့အားလံုး ေကာင္းတာကို လုပ္ခ်င္ရင္ ေျပာင္းလဲဖို ့က ျဖစ္ႏိုင္တယ္လို ့ ငါထင္တယ္။

ေဝျဖိဳး။  ။ ဒါေပမဲ့ နင္ဘာကို ေျပာခ်င္တာလဲ.. “ေကာင္းတာကို လုပ္တယ္” ဆိုတာ ၊ လူတိုင္းက နင့္လိုမ်ိဳး အဖြဲ ့အစည္းေတြမွာ အလုပ္ မလုပ္ႏိုင္ၾကဘူးေလ။

ဆုျမတ္။   ။ လူတိုင္း ဒီလို အလုပ္ေတြ လုပ္စရာမလိုပါဘူး ။ တက္ၾကြတဲ့ ႏိုင္ငံသား ျဖစ္ဖို ့က နည္းလမ္းေတြ အမ်ားၾကီးရွိတယ္။ အဓိက အေရးၾကီးတာက သူတို ့ေတြ ပူးေပါင္း ပါဝင္ၾကဖို ့ပဲ ။

ေဝျဖိဳး။   ။ ဘယ္မွာ ပူးေပါင္း ပါဝင္ရမွာလဲ ?

ဆုျမတ္။  ။ လူေတြ အားလံုး သေဘာတူတဲ့ ဆံုးျဖတ္ခ်က္ ခ်တာတို ့၊ လူမႈ အသိုက္အဝန္းၾကီးကို ပိုေကာင္းေအာင္ ျပဳျပင္တာတို ့ေပါ့။

ေဝျဖိဳး။   ။ ဘယ္လိုမ်ိဳးလဲ ?
ဆုုျမတ္။  ။ သူတို ့ရဲ ့အခြင့္အေရးေတြကို ေလ့လာသင္ယူျခင္းနဲ ့ေပါ့။

