

ဂုဏ္ယူပါတယ္။ သင္သည္ ပထမအခန္းကို ျပီးဆံုးျပီျဖစ္ျပီး ေနာက္ထပ္အခန္းကို ဖြင့္လိုက္ျပီ ျဖစ္သည္။ ႏိုင္ငံသားႏွင့္ပက္သက္၍ ေမးခြန္းရွိပါေသးလား။

ႏွိပ္ႏိုင္ေသာ ေရြးစရာမ်ား:
•	ဟုတ္။ ေမးၾကစုိ႔ - ျမန္မာ သုိ႔သြားပါ။
•	ဟင့္အင္း။ ေနာက္တစ္ခန္းကို ဆက္သြားပါ။ 

