
သင့္ရဲ  ့ပုဂၢိဳလ္ေရး တန္ဖိုးကို သတင္းအခ်က္အလက္မ်ား ေဝဖန္ပိုင္းျခားျခင္းမွာ အသံုးျပဳပါသည္။ သို ့ေသာ္ သင့္ရဲ  ့ ပုဂၢိဳလ္ေရး တန္ဖိုး သည္ သတင္းအခ်က္အလက္မ်ားမွ လြမ္းမိုးႏိုင္ပါသည္။
ထို ့ေၾကာင့္  ပုဂၢိဳလ္ေရး တန္ဖိုး သည္ အခ်ိန္တိုင္း ေျပာင္းလဲႏိုင္ပါသည္။
