
အဘယ္ေၾကာင့္ ျမန္မာႏိုင္ငံတြင္ ေနထိုင္သူတိုင္း တက္ၾကြႏိုင္ငံသား ျဖစ္သင့္ပါသလဲ? ေအာက္တြင္ အေၾကာင္းျပခ်က္ တစ္ခုသုိ႔မဟုတ္ တစ္ခုထက္မနည္း ေရြးခ်ယ္ပါ။

•	လူတိုင္းသည္ ၎တို႔၏ လူမႈပတ္ဝန္းက်င္ကို ျဖည့္ဆည္းကူညီရန္ ဝတၱရားရွိသည္။
•	အကယ္၍ လူတို႔သည္၎တို႔ လူမႈပတ္ဝန္းက်င္ အတြက္ လုပ္ကိုင္လွ်င္ ၎တို႔ကို လိုအပ္ေၾကာင္း ခံစားမိလိမ့္မည္ ျဖစ္သည္။
•	ေကာင္းရာေကာင္းေၾကာင္းလုပ္ေဆာင္ရာမွာ လူတို႔သည္ ပို၍ ယံုၾကည္ခ်က္ျပည့္ဝ လာလိမ့္မည္။
•	မိမိ၏ လူမႈပတ္ဝန္းက်င္ေကာင္းက်ိဳး လုပ္သူတို႔သည္ အခ်ီးေျမာက္ခံရမည္ ျဖစ္သည္။
•	မိမိ၏ လူမႈပတ္ဝန္းက်င္ကို  ကူညီေနေသာ မိမိႏွင့္စိတ္တူကုိယ္တူ မိတ္ေဆြမ်ား ရရွိႏိုင္မည္။
•	မိမိ၏ လူမႈပတ္ဝန္းက်င္ကို ကူညီေသာအခါ အရည္အေသြးသစ္မ်ား ေလ့လာရရွိျပီး ဘဝတြင္ ပို၍ ေအာင္ျမင္ႏုိင္ပါသည္။
•	မိမိ၏ လူမႈပတ္ဝန္းက်င္ကို ကူညီေသာအခါ မိမိလည္း ပိုမို အဓိပၸါယ္ရွိေသာဘဝကုိ ရရွိပါသည္။ 
•	အကယ္၍ လူတို႔က ၎တို႔၏ လူမႈပတ္ဝန္းက်င္ကို ဂရုမစိုက္လွ်င္ အႏၱရာယ္ ရွိပါသည္။
•	အကယ္၍ လူတို႔သည္ ၎တို႔၏ လူမႈွုပတ္ဝန္းက်င္တြင္ တက္ၾကြပါဝင္မႈ မရွိပါက ဆံုးျဖတ္ခ်က္ခ်မႈတြင္ ၾသဇာမလႊြမ္းမိုး ႏုိင္ပါ။ 
•	အကယ္၍ သင္သည္ သင္၏ လူမႈပတ္ဝန္းက်င္ကို တက္ၾကြစြာ ေထာက္ပံ့မႈ မျပဳလ်င္ မွားေနသည္ဟု မိမိထင္သည့္အရာကို ျပန္တံု႔ျပန္ေျပာဆုိရန္ အခြင့္အေရးမရွိပါ။
•	အျခားအေၾကာင္းျပခ်က္

