ျပည္ေထာင္စု လႊြတ္ေတာ္တြင္ေရြးခ်ယ္ခံရပါက ထိုအဖြဲ႔၀င္မ်ားသည္ သမၼတကိုေရြးခ်ယ္ပိုင္ခြင့္ရွိသည္။

ျပည္ေထာင္စုလႊြတ္ေတာ္မွ လႊြတ္ေတာ္ႏွစ္ဖြဲ႔သည္ သမၼတေလာင္းကို ေရြးခ်ယ္ႏိုင္သည္။ ပါလီမန္မွ စစ္ဖက္အဖြဲ႔၀င္မ်ားသည္ သမၼတေလာင္းကိုေရြးခ်ယ္ႏိုင္သည္။

ထိုေနာက္ သမၼတမည္သူျဖစ္သင့္သည္ကို ျပည္သူ႕လႊြတ္ေတာ္နွင့္ စစ္ဖက္မွအဖြဲ႔၀င္မ်ားက မဲေပးဆံုးျဖတ္ၾကသည္။ မဲႏိုင္သူသည္ သမၼတအျဖစ္တာ၀န္ထမ္းေဆာင္ရသည္။ အျခားေသာ သမၼတေလာင္းႏွစ္ေယာက္သည္လည္း ဒုတိယသမၼတအျဖစ္ တာ၀န္ယူရပါသည္။

ထိုေၾကာင့္ ျပည္ေထာင္စုလႊြတ္ေတာ္တြင္း ပါတီတစ္ခုတြင္းမွ အဖြဲ႔၀င္ဦးေရမ်ားပါက ထုိပါတီမွ သမၼတကိုေရြးခ်ယ္ရန္အခြင့္အေရးပိုမ်ားသည္။
