ေ၀ျဖိဳး:
ညိွႏိႈင္းေဆြးေႏြးမႈဆိုတာဘာလဲ ေနာက္ျပီး ဘာအတြက္ လိုအပ္တာလဲ? 

ေနာက္ခံအသံ:
ညိႈႏိႈင္းေဆြးေႏြးမႈဆိုတာ ျပႆနာမ်ားကို ေျဖရွင္းျခင္းပင္ျဖစ္ပါတယ္။

ညိွႏိႈင္းေဆြးေႏြးမႈဆိုတာ သေဘာတူညီမႈမရွိတဲ့လူေတြကို လိုခ်င္တာေတြေပးႏိုင္ေအာင္ လုပ္ေဆာင္တာပါ။ ညိွႏိႈင္းေဆြးေႏြးမႈလုပ္ရင္ တစ္ဦးလိုခ်င္တာကို တစ္ဦးက လိုက္ေလ်ာရပါတယ္။ ႏွစ္ဦးႏွစ္ဖက္လံုးက လိုက္ေလ်ာရတာပါ။ ဒါေၾကာင့္ ကိုယ္လိုခ်င္တာကိုလည္း ေလွ်ာ့ယူရသလို သူကိုလည္း ျပန္ေပးရပါတယ္။ သို႔မွသာ မွ်တမႈရွိမည္ျဖစ္သည္။ ၄င္းမွ ေျဖရွင္းႏိုင္မည့္အေျဖကိုလည္း ရွာေတြ႔ႏိုင္မည္ျဖစ္ပါသည္။
