ေကာင္းမြန္ေသာအုပ္ခ်ဳပ္မႈဆိုသည္မွာ အဖြဲ႔အစည္းမ်ားမွ ေကာင္းမြန္ေသာလုပ္ေဆာင္ခ်က္မ်ားကို လုပ္ကိုင္ေဆာင္ရြက္ျခင္း ျဖစ္သည္။ အဖြဲ႔အစည္းမ်ား၏ လုပ္ေဆာင္ခ်က္မ်ားႏွင့္ဆံုးျဖတ္ခ်က္မ်ားသည္ ျပည္သူမ်ား၏ လိုအပ္ခ်က္မ်ားကိုအေကာင္းဆံုးစဥ္းစားေပးျပီး ခ်မွတ္လုပ္ေဆာင္သင့္သည္။
ျပည္သူမ်ား၏လိုအပ္ခ်က္မ်ားႏွင့္ စိတ္ဝင္စားမႈမ်ားကို သိရွိရန္ ေကာင္းမြန္ေသာအုပ္ခ်ဳပ္ေရးတြင္ ႏိုင္ငံေရးေခါင္းေဆာင္မ်ားမွ ျပည္သူမ်ား၊ စီပြားေရးလုပ္ငန္းရွင္မ်ား၊ အဖြဲ႔အစည္းမ်ားႏွင့္ အျခားေသာလူထုအဖြဲ႔အစည္းမ်ားႏွင့္ ဆက္ဆံေရးကိုတည္ေဆာက္ထားရမည္။ ႏိုင္ငံေရးေခါင္းေဆာင္မ်ားမွ ႏိုင္ငံသားအားလံုး၏စိတ္ဝင္စားမႈမ်ားကို နားလည္ျပီး စဥ္းစားေပးရမည္။ ခ်မ္းသာျပီးအာဏာရွိေသာလူမ်ားအတြက္သာမဟုတ္ေပ။
ပါဝင္လႈပ္ရွားမႈ၊ ပြင့္လင္းျမင္သာရွိမႈ၊ တာဝန္ယူမႈ၊ ဥပေဒ၏အုပ္ခ်ဳပ္မႈ ႏွင့္ ေကာင္းမြန္ေသာအုပ္ခ်ဳပ္မႈ စသည့္အစိတ္အပိုင္း(၅)ခုသည္ ခိုင္မာေသာဒီမိုကေရစီအုပ္ခ်ဳပ္ေရးကိုထိန္းသိမ္းရန္အတြက္ အရမ္းအေရးၾကီးသည္။
