ဒီမိုကေရစီအုပ္ခ်ဳပ္ေရးစနစ္သည္ ဥပေဒ၏အုပ္ခ်ဳပ္မႈမရွိဘဲ ေကာင္းစြာလည္ပတ္အုပ္ခ်ဳပ္ႏိုင္မည္မဟုတ္ပါ။ ဆိုလိုသည္မွာ ခ်မွတ္ထားေသာစည္းမ်ဥ္းဥပေဒမ်ားကို ႏိုင္ငံသားတိုင္း လိုက္နာေဆာင္ရြက္ရန္လိုအပ္သည္။ ေခါင္းေဆာင္မ်ားသည္လည္း ႏိုင္ငံသားျဖစ္ေသာေၾကာင့္ လိုက္နာရန္လိုအပ္ပါသည္။
ဥပေဒ၏အုပ္ခ်ဳပ္မႈဆိုသည္မွာ ဥပေဒအထက္တြင္မည္သူမွမရွိရပါ။ ဆင္းရဲ၍အာဏာမရွိသူကိုသာမက ခ်မ္းသာ၍အာဏာရွိသူမ်ားကိုပါ ဥပေဒသည္သက္ေရာက္မႈရွိသည္။ ဥပေဒ၏အုပ္ခ်ဳပ္မႈေအာက္တြင္ ႏိုင္ငံသားတိုင္း ဆင္းရဲခ်မ္းသာမေရြး တန္းတူရွိေနျပီး ဥပေဒကိုခ်ိဳးေဖာက္ပါက တူညီေသာျပစ္ဒဏ္ခ်မွတ္ျခင္းခံရမည္။
ေခါင္းေဆာင္မ်ားအပါအဝင္ ႏိုင္ငံသားအားလံုး ဥပေဒကိုလိုက္နာေဆာင္ရြက္ျခင္းျဖင့္ ဒီမိုကေရစီကိုျခိမ္းေျခာက္လာႏိုင္ေသာလုပ္ေဆာင္ခ်က္မ်ားမွ ကာကြယ္ႏိုင္မည္ျဖစ္သည္။
