ေအာက္ပါေပးထားေသာစာေၾကာင္းမ်ားကို သင္အေရးၾကီးဆံုးဟုထင္သည္ကို (၁)၊ အေရးမၾကီး သည္ ဟု ထင္သည္ကို(၄) အစရွိသျဖင့္နံပါတ္စဥ္တပ္ေပးပါ။ အမွန္/အမွားအေျဖမ်ားမရွိပါ။

ကစားပြဲ ၂

−	လူတစ္ဦးတည္း(သို႔)အဖြဲအစည္းတစ္ခုတည္းမွ အာဏာပိုမရေစရန္ အာဏာမ်ားကိုခြဲေဝထားသင့္သည္။
−	အစိုးရအုပ္ခ်ဳပ္မႈသည္ ျပည္သူ႔မ်ား၏ဆႏၵာအေပၚအေျခခံ၍ဆံုးျဖတ္ခ်က္မ်ားခ်သင့္သည္။
−	ေခါင္းေဆာင္မ်ားႏွင့္ႏိုင္ငံေရးသမားမ်ားအပါအဝင္ ႏိုင္ငံသားအားလံုး ဥပေဒမ်ားအတိုင္း လိုက္နာေဆာင္ရြက္ရမည္။
−	အစိုးရ၏လုပ္ေဆာင္ခ်က္မ်ားႏွင့္ပတ္သက္၍ ႏိုင္ငံသားတိုင္း သတင္းအခ်က္အလက္မ်ားကို လြတ္လပ္စြာသိရပိုင္ခြင့္ရွိသင့္သည္။
